{
  "dependencies": {
    "mssql1": {
      "type": "mssql.local",
      "connectionId": "PropertyNinjaContext"
    },
    "secrets1": {
      "type": "secrets.user"
    },
    "storage1": {
      "resourceId": "/subscriptions/[parameters('subscriptionId')]/resourcegroups/[parameters('resourceGroupName')]/providers/Microsoft.Storage/storageAccounts/propertyninjablobstorage",
      "type": "storage.azure",
      "connectionId": "blobstorage",
      "secretStore": "LocalSecretsFile"
    },
    "mssql2": {
      "type": "mssql.local",
      "connectionId": "PropertyNinjaUserContextConnection"
    }
  }
}